[
  {
    "ville" : "Dakar",
    "lieu" : "Place de l'independance",
    "telephone" : "+221338591020",
    "email" : "srk50@dibor-galsen.com",
    "img" : "https://xalimasn.com/wp-content/uploads/2015/12/1.jpg"
  },
  {
    "ville" : "Pikine",
    "lieu" : "Pikine Tally Boumack",
    "telephone" : "+221338591020",
    "email" : "srk60@dibor-galsen.com",
    "img" : "https://senegal2019.org/wp-content/uploads/2018/12/monument-senegal.jpg"
  },
  {
    "ville" : "Touba",
    "lieu" : "Garage de Dakar",
    "telephone" : "+221338591020",
    "email" : "srk70@dibor-galsen.com",
    "img" : "https://afriqueconfidentielle.com/wp-content/uploads/2018/08/Dakar-Arena.jpg"
  },
  {
    "ville" : "Thies",
    "lieu" : "Place de la nation",
    "telephone" : "+221338591020",
    "email" : "srk80@dibor-galsen.com",
    "img" : "https://www.xibar.net/photo/art/default/1377675-1821154.jpg?v=1290026027"
  }
]